Sentence,subject,Object,Class (1-Metaphorical; 2-Literal)
That football player is fast.,player,fast,2
My lawyer is aggressive.,lawyer,aggressive,2
That football player is a rail.,player,rail,1
Some bladders are big.,bladder,big,2
Her ex-husband is a gem.,husband,gem,1
Marriage is a war.,marriage,war,1
Hope is a beginning.,hope,beginning,2
My boyfriend is a peach.,boyfriend,peach,1
New moon is a banana.,moon,banana,1
The nearest star is spherical in shape.,star,spherical,2
Life is a game.,life,game,1
Insults are razors.,insult,razor,1
Sadness can be aggressive.,sad,aggressive,2
My computer skills course is poor.,skills,poor,2
Her father is strong.,father,strong,2
Flood  is beast.,flood,beast,1
That student is hyperactive.,student,hyperactive,2
Some dogs are princesses.,dog,princess,1
Grandparents can be donkeys.,grandparent,donkey,1
My grandfather’s legs are steel.,grandfather,steel,1
Many teams are jails.,team,jail,1
A business is a growing organism.,business,organism,1
Path through forest is a ribbon.,path,ribbon,1
My grandfather’s legs are strong.,grandfather,strong,2
Petroleum is expensive.,petroleum,expensive,2
Petroleum is gold.,petroleum,gold,1
That professor is a duck.,professor,duck,1
Some dogs are pampered.,dog,pamper,2
A zoo is a place to keep animals.,zoo,place,2
Many teams are extremely controlling.,team,control,2
His marriage was a short leash.,marriage,leash,1
Clouds are fluffy.,cloud,fluffy,2
This room is very cold.,room,cold,2
Flood  is a disaster.,flood,disaster,2
Some tears are intriguing.,tear,intrigue,2
That criminal’s pathway is a well planned scheme.,pathway,scheme,2
The senator is a fossil.,senator,fossil,1
Intelligence is a warehouse.,intelligence,warehouse,1
Jalapeno peppers are fire.,pepper,fire,1
Time is thief.,time,thief,1
Brain performs cognition.,brain,cognition,2
Alcohol is for incapables.,alcohol,incapable,2
Her eyes are stars.,eye,star,1
Time is a cruel teacher.,time,teacher,1
My lawyer is a shark.,lawyer,shark,1
Dew on green grass  is water droplet.,dew,droplet,2
Control is fertilizer,control,fertilizer,1
The good news was an earthquake.,news,earthquake,1
The Great Plains are vast.,plains,vast,2
Atom is solar system,atom,solar system,1
A fisherman is a fish-catcher.,fisherman,Fish-catcher,2
A tree provides shade.,tree,shade,2
Ideas can be diamonds.,idea,diamond,1
Small kids are naughty.,kids,naughty,2
Ideas can be precious.,idea,precious,2
That receptionist is a breath of fresh air.,receptionist,breath,1
Teenage love is full of extreme emotions.,love,emotion,2
Beavers are rodents.,beaver,rodent,2
A business is a growing enterprise.,business,enterprise,2
My computer skills course is a joke.,course,joke,1
My professor is cruel.,professor,cruel,2
My professor is a savage.,professor,savage,1
Sachin Tendulkar is the God of cricket,sachin tendulkar,god,1
Cocaine is a time bomb.,cocaine,time bomb,1
Hostility is hidden.,hostility,hidden,2
John is cunning.,person,cunning,2
Insults are hurtful.,insult,hurtful,2
The driveway is an ice rink.,driveway,ice rink,1
The Great Plains are a board.,plains,board,1
Sadness is a volcano.,sadness,volcano,1
An opponent is an anchor.,opponent,anchor,1
Trust can be harmful.,trust,harmful,2
Her eyes are shiny.,eye,shiny,2
Time is quick.,time,quick,2
Some fashion models are twigs.,fashion model,twig,1
My boyfriend is a good person.,boyfriend,person,2
That professor is short.,professor,short,2
Grandparents can be foolish.,grandparent,foolish,2
That bedroom is a dump.,bedroom,dump,1
Life is unpredictable.,life,unpredictable,2
The driveway is slippery.,driveway,slippery,2
Steven is glutton,person,glutton,2
That criminal’s pathway is a portrait.,pathway,portrait,1
Some snores are sirens.,snore,siren,1
My rat’ fur is silk.,fur,silk,1
Her ex-husband is a good man.,husband,man,2
The basketball player was fast.,player,fast,2
Teenage love is a roller coaster ride.,love,roller coaster,1
Small kids are monkeys.,kid,monkey,1
Time changes everything.,time,everything,2
Clouds are ships in a sea.,cloud,ship,1
Education is helpful.,education,helpful,2
Her skin is white.,skin,white,2
His marriage was controlling.,marriage,control,2
His college class is disorganized.,college,disorganized,2
Control is encouraging.,control,encourage,2
This room is Antarctica.,room,antarctica,1
Beavers are lumberjacks.,beaver,lumberjack,1
His college class is a zoo.,class,zoo,1
An opponent hinders  the progress.,opponent,hinder,2
Sachin Tendulkar is the best player of cricket.,sachin tendulkar,player,2
Music can be soothing.,music,soothing,2
John is a fox when it comes to getting a deal.,john,fox,1
Time is money.,time,money,1
Brain is a machine.,brain,machine,1
Cocaine is dangerous.,cocaine,dangerous,2
The nearest star is a ball.,star,ball,1
Some teachers are encyclopedias.,teacher,encyclopedia,1
New moon is a curve.,moon,curve,2
A bad marriage is hell.,marriage,hell,1
Some tears are magnets.,tear,magnet,1
Marriage is an institution.,marriage,institution,1
Atom is smallest unit of matter.,atom,matter,2
Some teachers are quite knowledgeable.,teacher,knowledge,2
Some snores are loud.,snore,loud,2
Alcohol is a crutch.,alcohol,crutch,1
A lie is a dagger.,lie,dagger,1
Books are treasure chests.,book,treasure chest,1
Utilizing time is important for  money.,time,important,2
A zoo is a museum.,zoo,museum,1
Trust is a weapon.,trust,weapon,1
That student is a spring.,student,spring,1
A bad marriage is torture.,marriage,torture,2
Her skin is snow.,skin,snow,1
My rat’s fur is soft.,fur,soft,2
Intelligence is knowing many things.,intelligence,know,2
Hope is a seed.,hope,seed,1
Steven is a pig when he eats.,person,pig,1
Her father is a rock.,father,rock,1
My young cousin is thin.,cousin,thin,2
Music can be medicine.,music,medicine,1
A fisherman is a spider.,fisherman,spider,1
Jalepeno peppers are spicy.,pepper,spicy,2
The good news got popular.,news,popular,2
The senator is a really old.,senator,old,2
Some bladders are barrels.,bladder,barrel,1
Path through forest is narrow lane.,path,lane,2
Marriage is a legal contract.,marriage,contract,2
Dew on green grass  is pearl.,dew,pearl,1
That bedroom is poorly organised.,bedroom,organize,2
Some fashion models are really thin.,fashion model,thin,2
My young cousin is a shrimp.,cousin,shrimp,1
A tree is an umbrella.,tree,umbrella,1
Hostility is a veil.,hostility,veil,1
That receptionist is new.,receptionist,new,2
A lie is a false statement.,lie,statement,2
Marriage involves argument,marriage,argument,2
The basketball player was thunder.,player,thunder,1
Books are knowledge.,book,knowledge,2
Education is a lantern.,education,lantern,1
